\relax 
\providecommand{\transparent@use}[1]{}
\citation{AminS2010}
\citation{ILO2017}
\citation{THORN2018}
\citation{THORN2018}
\citation{MikolovT2013b}
\citation{ChungJ2015}
\citation{ChengJ2008}
\citation{HeK2016}
\citation{IoffeS2015}
\citation{TongE2017}
\citation{TongE2017}
\citation{MikolovT2013b}
\citation{MaatenL2008}
\@writefile{toc}{\contentsline {section}{\numberline {1}Introduction}{1}}
\newlabel{sec:intro}{{1}{1}}
\citation{TongE2017}
\citation{MikolovT2013b}
\citation{TongE2017}
\@writefile{toc}{\contentsline {section}{\numberline {2}Related Work}{2}}
\newlabel{sec:rel}{{2}{2}}
\citation{BaccianellaS2009}
\citation{BaccianellaS2009}
\citation{RennieJ2005}
\citation{RennieJ2005}
\citation{FanR2008,HoC2012,PedF2015}
\citation{FrankE2001,LiL2006}
\citation{ChengJ2008}
\citation{ChengJ2008}
\citation{NiuZ2016}
\citation{IrsoyO2015,RuderS2016}
\citation{TongE2017}
\citation{DumaisS2004}
\citation{MikolovT2013a}
\citation{MikolovT2013b}
\@writefile{toc}{\contentsline {section}{\numberline {3}Method}{4}}
\newlabel{sec:method}{{3}{4}}
\citation{TongE2017}
\citation{MikolovT2013b}
\@writefile{lof}{\contentsline {figure}{\numberline {1}{\ignorespaces  Overview of the ordinal regression neural network for text input. $\mathbf  {h}$ represents hidden state (details explained in the following subsections). }}{5}}
\newlabel{fig-ornn}{{1}{5}}
\@writefile{toc}{\contentsline {subsection}{\numberline {3.1}Word Embeddings}{5}}
\newlabel{sec:embedding}{{3.1}{5}}
\citation{MikolovT2013b}
\citation{LeCunY2015}
\citation{GoodfellowI2016}
\citation{ChungJ2015}
\@writefile{lof}{\contentsline {figure}{\numberline {2}{\ignorespaces  The Skip-gram model architecture. }}{7}}
\newlabel{skip-gram}{{2}{7}}
\@writefile{toc}{\contentsline {subsection}{\numberline {3.2}Gated-Feedback Recurrent Neural Network}{7}}
\newlabel{sec:gfrnn}{{3.2}{7}}
\@writefile{lof}{\contentsline {figure}{\numberline {3}{\ignorespaces  A basic multi-layered RNN. }}{8}}
\newlabel{stacked_rnn}{{3}{8}}
\citation{SrivastavaN2014}
\citation{HeK2016}
\citation{IoffeS2015}
\@writefile{lof}{\contentsline {figure}{\numberline {4}{\ignorespaces  A Gated-feedback RNN. }}{9}}
\newlabel{gfrnn}{{4}{9}}
\citation{FrankE2001,LiL2006,NiuZ2016}
\citation{GoodfellowI2016}
\citation{ChengJ2008}
\@writefile{toc}{\contentsline {subsection}{\numberline {3.3}Multi-Labeled Logistic Regression Layer}{10}}
\newlabel{sec:multi-label}{{3.3}{10}}
\@writefile{lof}{\contentsline {figure}{\numberline {5}{\ignorespaces  Ordinal regression layer. }}{10}}
\newlabel{multi_label}{{5}{10}}
\citation{ChengJ2008}
\citation{IrsoyO2015,NiuZ2016}
\citation{NiuZ2016}
\citation{TongE2017}
\citation{TongE2017}
\citation{TongE2017}
\citation{RennieJ2005}
\citation{RennieJ2005}
\citation{BloomfieldP1980,NarulaS1982}
\citation{BaccianellaS2009}
\citation{TongE2017}
\@writefile{toc}{\contentsline {section}{\numberline {4}Experiments}{12}}
\newlabel{sec:exp}{{4}{12}}
\@writefile{toc}{\contentsline {subsection}{\numberline {4.1}Datasets}{12}}
\newlabel{sec:data}{{4.1}{12}}
\citation{BeelJ2016,ManningC2009}
\citation{ManningC2009,PedregosaF2011}
\citation{DumaisS2004}
\citation{SchullerB2015}
\@writefile{lot}{\contentsline {table}{\numberline {1}{\ignorespaces Description and distribution of labels in Trafficking10k.}}{13}}
\newlabel{data}{{1}{13}}
\@writefile{toc}{\contentsline {subsection}{\numberline {4.2}Comparison to Baselines}{13}}
\citation{TongE2017}
\citation{BengioY2004}
\@writefile{lot}{\contentsline {table}{\numberline {2}{\ignorespaces Comparison of our ordinal regression neural network (ORNN) against Immediate-Threshold ordinal logistic regression (IT), All-Threshold ordinal logistic regression (AT), Least Absolute Deviation (LAD), multi-class logistic regression (MC), and the Human Trafficking Deep Network (HTDN) in terms of Mean Absolute Error (MAE), macro-averaged Mean Absolute Error ($\text  {MAE}^M$), binary classification accuracy (Acc.) and weighted binary classification accuracy (Wt. Acc.). The results are averaged across 10-fold CV on Trafficking10k with naive standard errors in the parentheses. The best result is highlighted in green with the 2nd best in blue.}}{14}}
\newlabel{comp}{{2}{14}}
\@writefile{toc}{\contentsline {subsection}{\numberline {4.3}Ablation Test}{15}}
\newlabel{sec:ablation}{{4.3}{15}}
\@writefile{lot}{\contentsline {table}{\numberline {3}{\ignorespaces Ablation test. Except for models everything is the same as Table 2\hbox {}.}}{15}}
\newlabel{ablation}{{3}{15}}
\citation{MaatenL2008}
\citation{MaatenL2008}
\@writefile{toc}{\contentsline {subsection}{\numberline {4.4}Emoji Analysis}{16}}
\citation{TongE2017}
\citation{TongE2017}
\@writefile{lof}{\contentsline {figure}{\numberline {6}{\ignorespaces  Emoji map produced by applying t-SNE to the emojis' vectors learned from escort ads using skip-gram model. For visual clarity, only the emojis that appeared most frequently in the escort ads we scraped are shown out of the total 968 emojis that appeared. }}{17}}
\newlabel{emoji}{{6}{17}}
\citation{GravesA2005}
\citation{KimY2014}
\citation{SocherR2013}
\citation{RosenthalS2017}
\citation{RenS2015}
\citation{*}
\bibstyle{jasa}
\bibdata{myBib}
\bibcite{AminS2010}{{1}{2010}{{Amin}}{{}}}
\@writefile{toc}{\contentsline {section}{\numberline {5}Discussion}{18}}
\newlabel{sec:dis}{{5}{18}}
\bibcite{BaccianellaS2009}{{2}{2009}{{Baccianella et~al.}}{{Baccianella, Esuli, and Sebastiani}}}
\bibcite{BeelJ2016}{{3}{2016}{{Beel et~al.}}{{Beel, Gipp, Langer, and Breitinger}}}
\bibcite{BengioY2004}{{4}{2004}{{Bengio and Grandvalet}}{{}}}
\bibcite{BloomfieldP1980}{{5}{1980}{{Bloomfield and Steiger}}{{}}}
\bibcite{ChengJ2008}{{6}{2008}{{Cheng et~al.}}{{Cheng, Wang, and Pollastri}}}
\bibcite{ChungJ2015}{{7}{2015}{{Chung et~al.}}{{Chung, Gulcehre, Cho, and Bengio}}}
\bibcite{DumaisS2004}{{8}{2004}{{Dumais}}{{}}}
\bibcite{FanR2008}{{9}{2008}{{Fan et~al.}}{{Fan, Chang, Hsieh, Wang, and Lin}}}
\bibcite{FrankE2001}{{10}{2001}{{Frank and Hall}}{{}}}
\bibcite{GoodfellowI2016}{{11}{2016}{{Goodfellow et~al.}}{{Goodfellow, Bengio, and Courville}}}
\bibcite{GravesA2005}{{12}{2005}{{Graves et~al.}}{{Graves, Fern\'andez, and Schmidhuber}}}
\bibcite{HeK2016}{{13}{2016}{{He et~al.}}{{He, Zhang, Ren, and Sun}}}
\bibcite{HoC2012}{{14}{2012}{{Ho and Lin}}{{}}}
\bibcite{ILO2017}{{15}{2017}{{{International Labour Organization} et~al.}}{{{International Labour Organization}, Foundation, and for Migration}}}
\bibcite{IoffeS2015}{{16}{2015}{{Ioffe and Szegedy}}{{}}}
\bibcite{IrsoyO2015}{{17}{2015}{{Irsoy and Cardie}}{{}}}
\bibcite{KimY2014}{{18}{2014}{{Kim}}{{}}}
\bibcite{LeCunY2015}{{19}{2015}{{LeCun et~al.}}{{LeCun, Bengio, and Hinton}}}
\bibcite{LiL2006}{{20}{2006}{{Li and Lin}}{{}}}
\bibcite{ManningC2009}{{21}{2009}{{Manning et~al.}}{{Manning, Raghavan, and Sch{\\"u}tze}}}
\bibcite{MikolovT2013a}{{22}{2013{a}}{{Mikolov et~al.}}{{Mikolov, Chen, Corrado, and Dean}}}
\bibcite{MikolovT2013b}{{23}{2013{b}}{{Mikolov et~al.}}{{Mikolov, Sutskever, Chen, Corrado, and Dean}}}
\bibcite{NarulaS1982}{{24}{1982}{{Narula and Wellington}}{{}}}
\bibcite{NiuZ2016}{{25}{2016}{{Niu et~al.}}{{Niu, Zhou, Wang, Gao, and Hua}}}
\bibcite{PedregosaF2011}{{26}{2011}{{Pedregosa et~al.}}{{Pedregosa, Varoquaux, Gramfort, Michel, Thirion, Grisel, Blondel, Prettenhofer, Weiss, Dubourg, Vanderplas, Passos, Cournapeau, Brucher, Perrot, and Duchesnay}}}
\bibcite{PedF2015}{{27}{2015}{{Pedregosa-Izquierdo}}{{}}}
\bibcite{RenS2015}{{28}{2015}{{Ren et~al.}}{{Ren, He, Girshick, and Sun}}}
\bibcite{RennieJ2005}{{29}{2005}{{Rennie and Srebro}}{{}}}
\bibcite{RosenthalS2017}{{30}{2017}{{Rosenthal et~al.}}{{Rosenthal, Farra, and Nakov}}}
\bibcite{RuderS2016}{{31}{2016}{{Ruder et~al.}}{{Ruder, Ghaffari, and Breslin}}}
\bibcite{SchullerB2015}{{32}{2015}{{Schuller et~al.}}{{Schuller, Mousa, and Vryniotis}}}
\bibcite{SocherR2013}{{33}{2013}{{Socher et~al.}}{{Socher, Perelygin, Wu, Chuang, Manning, Ng, and Potts}}}
\bibcite{SrivastavaN2014}{{34}{2014}{{Srivastava et~al.}}{{Srivastava, Hinton, Krizhevsky, Sutskever, and Salakhutdinov}}}
\bibcite{THORN2018}{{35}{2018}{{THORN and Bouch\'e}}{{}}}
\bibcite{TongE2017}{{36}{2017}{{Tong et~al.}}{{Tong, Zadeh, Jones, and Morency}}}
\bibcite{MaatenL2008}{{37}{2008}{{van~der Maaten and Hinton}}{{}}}
\citation{BeelJ2016,ManningC2009}
