,countries_for_numbers,frequency
0,ALB,1
1,ARM,2
2,ATG,7
3,AUS,2
4,AUT,4
5,CAN,38
6,CHN,3
7,COD,1
8,CZE,1
9,DEU,16
10,DMA,1
11,EGY,1
12,GBR,63
13,GHA,3
14,GRD,4
15,GTM,1
16,HTI,1
17,IDN,1
18,IND,5
19,IRN,2
20,IRQ,1
21,ISL,1
22,JAM,32
23,LKA,2
24,MAR,5
25,MCO,1
26,MEX,1
27,MSR,1
28,MYS,1
29,NGA,12
30,NOR,1
31,PAK,9
32,PAN,2
33,PHL,2
34,PRI,1
35,RUS,1
36,SEN,1
37,SHN,2
38,SXM,1
39,TGO,2
40,TTO,1
41,TZA,3
42,UGA,1
43,UKR,1
44,USA,1347
45,ZAF,5
46,ZWE,1
